…
Between `select()` and `filter()`, it can be hard to remember which operates on columns and which operates on rows. 
`sele`**`c`**`t()` has a **c** for **c**olumns and `filte`**`r`**`()` has an **r** for **r**ows.

#### `select()`

To use the `select()` function, the first argument is the name of the data.frame, and the rest of the arguments are *unquoted* names of the columns you want:


```r
select(surveys, plot_id, species_id, hindfoot_length)
```

```
## # A tibble: 16,878 × 3
##    plot_id species_id hindfoot_length
##      <dbl> <chr>                <dbl>
##  1       2 NL                      32
##  2       3 NL                      33
##  3       2 DM                      37
##  4       7 DM                      36
##  5       3 DM                      35
##  6       1 PF                      14
##  7       2 PE                      NA
##  8       1 DM                      37
##  9       1 DM                      34
## 10       6 PF                      20
## # ℹ 16,868 more rows
```

The columns are arranged in the order we specified inside `select()`.

To select all columns except specific columns, put a `-` in front of the column you want to exclude:


```r
select(surveys, -record_id, -year)
```

```
## # A tibble: 16,878 × 11
##    month   day plot_id species_id sex   hindfoot_length weight genus     species
##    <dbl> <dbl>   <dbl> <chr>      <chr>           <dbl>  <dbl> <chr>     <chr>  
##  1     7    16       2 NL         M                  32     NA Neotoma   albigu…
##  2     7    16       3 NL         M                  33     NA Neotoma   albigu…
##  3     7    16       2 DM         F                  37     NA Dipodomys merria…
##  4     7    16       7 DM         M                  36     NA Dipodomys merria…
##  5     7    16       3 DM         M                  35     NA Dipodomys merria…
##  6     7    16       1 PF         M                  14     NA Perognat… flavus 
##  7     7    16       2 PE         F                  NA     NA Peromysc… eremic…
##  8     7    16       1 DM         M                  37     NA Dipodomys merria…
##  9     7    16       1 DM         F                  34     NA Dipodomys merria…
## 10     7    16       6 PF         F                  20     NA Perognat… flavus 
## # ℹ 16,868 more rows
## # ℹ 2 more variables: taxa <chr>, plot_type <chr>
```

Finally, you can select columns based on whether they match a certain criteria by using the `where()` function.
If we want all numeric columns, we can ask to `select` all the columns `where` the class `is numeric`:


```r
select(surveys, where(is.numeric))
```

```
## # A tibble: 16,878 × 7
##    record_id month   day  year plot_id hindfoot_length weight
##        <dbl> <dbl> <dbl> <dbl>   <dbl>           <dbl>  <dbl>
##  1         1     7    16  1977       2              32     NA
##  2         2     7    16  1977       3              33     NA
##  3         3     7    16  1977       2              37     NA
##  4         4     7    16  1977       7              36     NA
##  5         5     7    16  1977       3              35     NA
##  6         6     7    16  1977       1              14     NA
##  7         7     7    16  1977       2              NA     NA
##  8         8     7    16  1977       1              37     NA
##  9         9     7    16  1977       1              34     NA
## 10        10     7    16  1977       6              20     NA
## # ℹ 16,868 more rows
```

Instead of giving names or positions of columns, we instead pass the `where()` function with the name of another function inside it, in this case `is.numeric()`, and we get all the columns for which that function returns `TRUE`.

We can use this to select any columns that have any `NA` values in them:


```r
select(surveys, where(anyNA))
```

```
## # A tibble: 16,878 × 7
##    species_id sex   hindfoot_length weight genus       species  taxa  
##    <chr>      <chr>           <dbl>  <dbl> <chr>       <chr>    <chr> 
##  1 NL         M                  32     NA Neotoma     albigula Rodent
##  2 NL         M                  33     NA Neotoma     albigula Rodent
##  3 DM         F                  37     NA Dipodomys   merriami Rodent
##  4 DM         M                  36     NA Dipodomys   merriami Rodent
##  5 DM         M                  35     NA Dipodomys   merriami Rodent
##  6 PF         M                  14     NA Perognathus flavus   Rodent
##  7 PE         F                  NA     NA Peromyscus  eremicus Rodent
##  8 DM         M                  37     NA Dipodomys   merriami Rodent
##  9 DM         F                  34     NA Dipodomys   merriami Rodent
## 10 PF         F                  20     NA Perognathus flavus   Rodent
## # ℹ 16,868 more rows
```

#### `filter()`

The `filter()` function is used to select rows that meet certain criteria.
To get all the rows where the value of `year` is equal to 1985, we would run the following:


```r
filter(surveys, year == 1985)
```

```
## # A tibble: 1,438 × 13
##    record_id month   day  year plot_id species_id sex   hindfoot_length weight
##        <dbl> <dbl> <dbl> <dbl>   <dbl> <chr>      <chr>           <dbl>  <dbl>
##  1      9790     1    19  1985      16 RM         F                  16      4
##  2      9791     1    19  1985      17 OT         F                  20     16
##  3      9792     1    19  1985       6 DO         M                  35     48
##  4      9793     1    19  1985      12 DO         F                  35     40
##  5      9794     1    19  1985      24 RM         M                  16      4
##  6      9795     1    19  1985      12 DO         M                  34     48
##  7      9796     1    19  1985       6 DM         F                  37     35
##  8      9797     1    19  1985      14 DM         M                  36     45
##  9      9798     1    19  1985       6 DM         F                  36     38
## 10      9799     1    19  1985      19 RM         M                  16      4
## # ℹ 1,428 more rows
## # ℹ 4 more variables: genus <chr>, species <chr>, taxa <chr>, plot_type <chr>
```

The `==` sign means "is equal to."
There are several other operators we can use: >, >=, <, <=, and != (not equal to).
Another useful operator is `%in%`, which asks if the value on the left hand side is found anywhere in the vector on the right hand side.
For example, to get rows with specific `species_id` values, we could run:


```r
filter(surveys, species_id %in% c("RM", "DO"))
```

```
## # A tibble: 2,835 × 13
##    record_id month   day  year plot_id species_id sex   hindfoot_length weight
##        <dbl> <dbl> <dbl> <dbl>   <dbl> <chr>      <chr>           <dbl>  <dbl>
##  1        68     8    19  1977       8 DO         F                  32     52
##  2       292    10    17  1977       3 DO         F                  36     33
##  3       294    10    17  1977       3 DO         F                  37     50
##  4       311    10    17  1977      19 RM         M                  18     13
##  5       317    10    17  1977      17 DO         F                  32     48
##  6       323    10    17  1977      17 DO         F                  33     31
##  7       337    10    18  1977       8 DO         F                  35     41
##  8       356    11    12  1977       1 DO         F                  32     44
##  9       378    11    12  1977       1 DO         M                  33     48
## 10       397    11    13  1977      17 RM         F                  16      7
## # ℹ 2,825 more rows
## # ℹ 4 more variables: genus <chr>, species <chr>, taxa <chr>, plot_type <chr>
```

We can also use multiple conditions in one `filter()` statement.
Here we will get rows with a year less than or equal to 1988 and whose hindfoot length values are not `NA`.
The `!` before the `is.na()` function means "not".


```r
filter(surveys, year <= 1988 & !is.na(hindfoot_length))
```

```
## # A tibble: 12,779 × 13
##    record_id month   day  year plot_id species_id sex   hindfoot_length weight
##        <dbl> <dbl> <dbl> <dbl>   <dbl> <chr>      <chr>           <dbl>  <dbl>
##  1         1     7    16  1977       2 NL         M                  32     NA
##  2         2     7    16  1977       3 NL         M                  33     NA
##  3         3     7    16  1977       2 DM         F                  37     NA
##  4         4     7    16  1977       7 DM         M                  36     NA
##  5         5     7    16  1977       3 DM         M                  35     NA
##  6         6     7    16  1977       1 PF         M                  14     NA
##  7         8     7    16  1977       1 DM         M                  37     NA
##  8         9     7    16  1977       1 DM         F                  34     NA
##  9        10     7    16  1977       6 PF         F                  20     NA
## 10        11     7    16  1977       5 DS         F                  53     NA
## # ℹ 12,769 more rows
## # ℹ 4 more variables: genus <chr>, species <chr>, taxa <chr>, plot_type <chr>
```
…
### The pipe: `%>%`

What happens if we want to both `select()` and `filter()` our data?
We have a couple options. 
An alternative approach is to create **intermediate** objects:


```r
surveys_noday <- select(surveys, -day)
filter(surveys_noday, month >= 7)
```

```
## # A tibble: 8,244 × 12
##    record_id month  year plot_id species_id sex   hindfoot_length weight genus  
##        <dbl> <dbl> <dbl>   <dbl> <chr>      <chr>           <dbl>  <dbl> <chr>  
##  1         1     7  1977       2 NL         M                  32     NA Neotoma
##  2         2     7  1977       3 NL         M                  33     NA Neotoma
##  3         3     7  1977       2 DM         F                  37     NA Dipodo…
##  4         4     7  1977       7 DM         M                  36     NA Dipodo…
##  5         5     7  1977       3 DM         M                  35     NA Dipodo…
##  6         6     7  1977       1 PF         M                  14     NA Perogn…
##  7         7     7  1977       2 PE         F                  NA     NA Peromy…
##  8         8     7  1977       1 DM         M                  37     NA Dipodo…
##  9         9     7  1977       1 DM         F                  34     NA Dipodo…
## 10        10     7  1977       6 PF         F                  20     NA Perogn…
## # ℹ 8,234 more rows
## # ℹ 3 more variables: species <chr>, taxa <chr>, plot_type <chr>
```
This approach accumulates a lot of intermediate objects, often with confusing names.

An elegant solution to this problem is an operator called the **pipe**, which looks like `%>%`.
You can insert it by using the keyboard shortcut <kbd>Shift+Cmd+M</kbd> (Mac) or <kbd>Shift+Ctrl+M</kbd> (Windows).
Here's how you could use a pipe to select and filter in one step:


```r
surveys %>% 
  select(-day) %>% 
  filter(month >= 7)
```

```
## # A tibble: 8,244 × 12
##    record_id month  year plot_id species_id sex   hindfoot_length weight genus  
##        <dbl> <dbl> <dbl>   <dbl> <chr>      <chr>           <dbl>  <dbl> <chr>  
##  1         1     7  1977       2 NL         M                  32     NA Neotoma
##  2         2     7  1977       3 NL         M                  33     NA Neotoma
##  3         3     7  1977       2 DM         F                  37     NA Dipodo…
##  4         4     7  1977       7 DM         M                  36     NA Dipodo…
##  5         5     7  1977       3 DM         M                  35     NA Dipodo…
##  6         6     7  1977       1 PF         M                  14     NA Perogn…
##  7         7     7  1977       2 PE         F                  NA     NA Peromy…
##  8         8     7  1977       1 DM         M                  37     NA Dipodo…
##  9         9     7  1977       1 DM         F                  34     NA Dipodo…
## 10        10     7  1977       6 PF         F                  20     NA Perogn…
## # ℹ 8,234 more rows
## # ℹ 3 more variables: species <chr>, taxa <chr>, plot_type <chr>
```
…
</details>

### Making new columns with `mutate()`

Another common task is creating a new column based on values in existing columns.
For example, we could add a new column that has the weight in kilograms instead of grams:


```r
surveys %>% 
  mutate(weight_kg = weight / 1000)
```

```
## # A tibble: 16,878 × 14
##    record_id month   day  year plot_id species_id sex   hindfoot_length weight
##        <dbl> <dbl> <dbl> <dbl>   <dbl> <chr>      <chr>           <dbl>  <dbl>
##  1         1     7    16  1977       2 NL         M                  32     NA
##  2         2     7    16  1977       3 NL         M                  33     NA
##  3         3     7    16  1977       2 DM         F                  37     NA
##  4         4     7    16  1977       7 DM         M                  36     NA
##  5         5     7    16  1977       3 DM         M                  35     NA
##  6         6     7    16  1977       1 PF         M                  14     NA
##  7         7     7    16  1977       2 PE         F                  NA     NA
##  8         8     7    16  1977       1 DM         M                  37     NA
##  9         9     7    16  1977       1 DM         F                  34     NA
## 10        10     7    16  1977       6 PF         F                  20     NA
## # ℹ 16,868 more rows
## # ℹ 5 more variables: genus <chr>, species <chr>, taxa <chr>, plot_type <chr>,
## #   weight_kg <dbl>
```

You can create multiple columns in one `mutate()` call, and they will get created in the order you write them.
This means you can even reference the first new column in the second new column:


```r
surveys %>% 
  mutate(weight_kg = weight / 1000,
         weight_lbs = weight_kg * 2.2)
```

```
## # A tibble: 16,878 × 15
##    record_id month   day  year plot_id species_id sex   hindfoot_length weight
##        <dbl> <dbl> <dbl> <dbl>   <dbl> <chr>      <chr>           <dbl>  <dbl>
##  1         1     7    16  1977       2 NL         M                  32     NA
##  2         2     7    16  1977       3 NL         M                  33     NA
##  3         3     7    16  1977       2 DM         F                  37     NA
##  4         4     7    16  1977       7 DM         M                  36     NA
##  5         5     7    16  1977       3 DM         M                  35     NA
##  6         6     7    16  1977       1 PF         M                  14     NA
##  7         7     7    16  1977       2 PE         F                  NA     NA
##  8         8     7    16  1977       1 DM         M                  37     NA
##  9         9     7    16  1977       1 DM         F                  34     NA
## 10        10     7    16  1977       6 PF         F                  20     NA
## # ℹ 16,868 more rows
## # ℹ 6 more variables: genus <chr>, species <chr>, taxa <chr>, plot_type <chr>,
## #   weight_kg <dbl>, weight_lbs <dbl>
```
…
```r
surveys %>% 
  group_by(species_id, sex) %>% 
  summarize(mean_weight = mean(weight, na.rm = T),
            n = n())
```

```
## `summarise()` has grouped output by 'species_id'. You can override using the
## `.groups` argument.
```

```
## # A tibble: 67 × 4
## # Groups:   species_id [36]
##    species_id sex   mean_weight     n
##    <chr>      <chr>       <dbl> <int>
##  1 AB         <NA>        NaN     223
##  2 AH         <NA>        NaN     136
##  3 BA         M             7       3
##  4 CB         <NA>        NaN      23
##  5 CM         <NA>        NaN      13
##  6 CQ         <NA>        NaN      16
##  7 CS         <NA>        NaN       1
##  8 CV         <NA>        NaN       1
##  9 DM         F            40.7  2522
## 10 DM         M            44.0  3108
## # ℹ 57 more rows
```
…
```r
surveys %>% 
  filter(!is.na(weight)) %>% 
  group_by(species_id, sex) %>% 
  summarize(mean_weight = mean(weight),
            n = n())
```

```
## `summarise()` has grouped output by 'species_id'. You can override using the
## `.groups` argument.
```

```
## # A tibble: 46 × 4
## # Groups:   species_id [18]
##    species_id sex   mean_weight     n
##    <chr>      <chr>       <dbl> <int>
##  1 BA         M             7       3
##  2 DM         F            40.7  2460
##  3 DM         M            44.0  3013
##  4 DM         <NA>         37       8
##  5 DO         F            48.4   679
##  6 DO         M            49.3   748
##  7 DO         <NA>         44       1
##  8 DS         F           118.   1055
##  9 DS         M           123.   1184
## 10 DS         <NA>        121.     16
## # ℹ 36 more rows
```
…
```
## `summarise()` has grouped output by 'species_id'. You can override using the
## `.groups` argument.
```

```
## # A tibble: 46 × 4
## # Groups:   species_id [18]
##    species_id sex   mean_weight     n
##    <chr>      <chr>       <dbl> <int>
##  1 PF         <NA>         6        2
##  2 BA         M            7        3
##  3 PF         F            7.09   215
##  4 PF         M            7.10   296
##  5 RM         M            9.92   678
##  6 RM         <NA>        10.4      7
##  7 RM         F           10.7    629
##  8 RF         M           12.4     16
##  9 RF         F           13.7     46
## 10 PP         <NA>        15        2
## # ℹ 36 more rows
```
…
```
## `summarise()` has grouped output by 'species_id'. You can override using the
## `.groups` argument.
```

```
## # A tibble: 46 × 4
## # Groups:   species_id [18]
##    species_id sex   mean_weight     n
##    <chr>      <chr>       <dbl> <int>
##  1 NL         M           168.    355
##  2 NL         <NA>        164.      9
##  3 NL         F           151.    460
##  4 SS         M           130       1
##  5 DS         M           123.   1184
##  6 DS         <NA>        121.     16
##  7 DS         F           118.   1055
##  8 SH         F            79.2    61
##  9 SH         M            67.6    34
## 10 SF         F            58.3     3
## # ℹ 36 more rows
```
…
They tell us we have a data.frame with 46 rows, 4 columns, and a group variable `species_id`, for which there are 18 groups.
We will see something similar if we use `group_by()` alone:


```r
surveys %>% 
  group_by(species_id, sex)
```

```
## # A tibble: 16,878 × 13
## # Groups:   species_id, sex [67]
##    record_id month   day  year plot_id species_id sex   hindfoot_length weight
##        <dbl> <dbl> <dbl> <dbl>   <dbl> <chr>      <chr>           <dbl>  <dbl>
##  1         1     7    16  1977       2 NL         M                  32     NA
##  2         2     7    16  1977       3 NL         M                  33     NA
##  3         3     7    16  1977       2 DM         F                  37     NA
##  4         4     7    16  1977       7 DM         M                  36     NA
##  5         5     7    16  1977       3 DM         M                  35     NA
##  6         6     7    16  1977       1 PF         M                  14     NA
##  7         7     7    16  1977       2 PE         F                  NA     NA
##  8         8     7    16  1977       1 DM         M                  37     NA
##  9         9     7    16  1977       1 DM         F                  34     NA
## 10        10     7    16  1977       6 PF         F                  20     NA
## # ℹ 16,868 more rows
## # ℹ 4 more variables: genus <chr>, species <chr>, taxa <chr>, plot_type <chr>
```
…
```
## `summarise()` has grouped output by 'species_id'. You can override using the
## `.groups` argument.
```

```
## # A tibble: 46 × 4
##    species_id sex   mean_weight     n
##    <chr>      <chr>       <dbl> <int>
##  1 NL         M           168.    355
##  2 NL         <NA>        164.      9
##  3 NL         F           151.    460
##  4 SS         M           130       1
##  5 DS         M           123.   1184
##  6 DS         <NA>        121.     16
##  7 DS         F           118.   1055
##  8 SH         F            79.2    61
##  9 SH         M            67.6    34
## 10 SF         F            58.3     3
## # ℹ 36 more rows
```
…
